{
  "timestamp": 1561218720,
  "upgrade_notice": {
    "version": "2.0.0",
    "message": "",
    "update_link": ""
  },
  "library": {
    "types_data": {
      "block": {
        "categories": [
          "404 page",
          "about",
          "archive",
          "call to action",
          "clients",
          "contact",
          "faq",
          "features",
          "footer",
          "header",
          "hero",
          "portfolio",
          "pricing",
          "product archive",
          "services",
          "single page",
          "single post",
          "single product",
          "stats",
          "subscribe",
          "team",
          "testimonials"
        ]
      },
      "popup": {
        "categories": [
          "bottom bar",
          "classic",
          "fly-in",
          "full screen",
          "hello bar",
          "slide-in"
        ]
      }
    },
    "categories": "[\"404 page\",\"about\",\"archive\",\"call to action\",\"clients\",\"contact\",\"faq\",\"features\",\"footer\",\"header\",\"hero\",\"portfolio\",\"pricing\",\"product archive\",\"services\",\"single page\",\"single post\",\"single product\",\"stats\",\"subscribe\",\"team\",\"testimonials\"]",
    "templates": [
      {
        "id": "rig_call_to_action_01",
        "title": "Call To Action 01",
        "thumbnail": "https://gitlab.com/anonnaabir/rig-elements-api/raw/master/images/rig-elements-call-to-action-block-01.png",
        "tmpl_created": "1520443695",
        "author": "Rig Elements",
        "url": "https://demo.codember.com/rig-elements/?page_id=15",
        "type": "block",
        "subtype": "call to action",
        "tags": "[\"call to action\"]",
        "menu_order": "0",
        "popularity_index": "0",
        "trend_index": "0",
        "has_page_settings": "0"
      },

      {
        "id": "2",
        "title": "Hero 1",
        "thumbnail": "https://gitlab.com/anonnaabir/rig-elements-api/raw/master/images/19.jpg",
        "tmpl_created": "1520443695",
        "author": "Elementor",
        "url": "https://library.elementor.com/blocks/hero-1/?utm_source=library&utm_medium=wp-dash&utm_campaign=preview",
        "type": "block",
        "subtype": "call to action",
        "tags": "[\"call to action\"]",
        "menu_order": "0",
        "popularity_index": "0",
        "trend_index": "0",
        "has_page_settings": "0"
      },

      {
        "id": "3",
        "title": "Hero 01",
        "thumbnail": "https://raw.githubusercontent.com/froala/design-blocks/master/screenshots/contents/14.jpg",
        "tmpl_created": "1520443695",
        "author": "Elementor",
        "url": "https://library.elementor.com/blocks/hero-1/?utm_source=library&utm_medium=wp-dash&utm_campaign=preview",
        "type": "block",
        "subtype": "hero",
        "tags": "[\"hero\"]",
        "menu_order": "0",
        "popularity_index": "0",
        "trend_index": "0",
        "has_page_settings": "0"
      },


      {
        "id": "1",
        "title": "Dugdugi Kit",
        "thumbnail": "https://raw.githubusercontent.com/froala/design-blocks/master/screenshots/footers/10.jpg",
        "tmpl_created": "1475067229",
        "author": "Elementor",
        "url": "https://library.elementor.com/hero-ui-kit/?utm_source=library&utm_medium=wp-dash&utm_campaign=preview",
        "type": "page",
        "subtype": "page",
        "tags": "[]",
        "menu_order": "0",
        "popularity_index": "0",
        "trend_index": "0",
        "has_page_settings": "0"
      }
    ]
  }
}
